Project 1
…
kpop_group_joined <- boygroup %>% left_join(girlgroup, by = "Company")

pivot_wider(kpop_group_joined)

## # A tibble: 224 x 17
##    Name.x Short.x Korean.Name.x Debut.x Company Members.x Orig..Memb..x
##    <fct>  <fct>   <fct>         <fct>   <fct>       <int>         <int>
##  1 100%   ""      백퍼센트      2012-0… TOP Me…         4             7
##  2 14U    ""      원포유        2017-0… BG             14            14
##  3 1the9  ""      원더나인      2019-0… MBK             9             9
##  4 1the9  ""      원더나인      2019-0… MBK             9             9
##  5 1the9  ""      원더나인      2019-0… MBK             9             9
##  6 24K    ""      투포케이      2012-0… Choeun          8             6
##  7 2AM    ""      투에이엠      2008-0… JYP, B…         4             4
##  8 2PM    ""      투피엠        2008-0… JYP             6             7
##  9 2PM    ""      투피엠        2008-0… JYP             6             7
## 10 2PM    ""      투피엠        2008-0… JYP             6             7
## # … with 214 more rows, and 10 more variables: Fanclub.Name.x <fct>,
## #   Active.x <fct>, Name.y <fct>, Short.y <fct>, Korean.Name.y <fct>,
## #   Debut.y <fct>, Members.y <int>, Orig..Memb..y <int>, Fanclub.Name.y <fct>,
## #   Active.y <fct>
…
##   Members.x Orig..Memb..x Members.y Orig..Memb..y
## 1  2.967226      2.911889   2.09901      2.328813

kpop_group_joined %>% summarise_if(is.numeric, quantile, na.rm = TRUE)

##   Members.x Orig..Memb..x Members.y Orig..Memb..y
## 1         2             2         2             2
## 2         4             5         4             4
## 3         6             6         5             5
## 4         7             7         6             8
## 5        18            18        13            12

Totalgroup %>% group_by(Company) %>% summarise_all(mean, na.rm = TRUE)

## # A tibble: 111 x 11
##    Company Name.x Debut.x Members.x Orig..Memb..x Active.x Name.y Debut.y
##    <fct>    <dbl>   <dbl>     <dbl>         <dbl>    <dbl>  <dbl>   <dbl>
##  1 (Genie)     NA      NA      7             7          NA     NA      NA
##  2 A team      NA      NA      7             6          NA     NA      NA
##  3 All-S       NA      NA      9             9          NA     NA      NA
##  4 Amuse       NA      NA      5             6          NA     NA      NA
##  5 Around…     NA      NA      4             6          NA     NA      NA
##  6 B2M         NA      NA      3             4          NA     NA      NA
##  7 Beat        NA      NA      5             5          NA     NA      NA
##  8 BG          NA      NA     14            14          NA     NA      NA
##  9 Big Hit     NA      NA      4.25          4.25       NA     NA      NA
## 10 BLACK …     NA      NA      6             6          NA     NA      NA
## # … with 101 more rows, and 3 more variables: Members.y <dbl>,
## #   Orig..Memb..y <dbl>, Active.y <dbl>
…
